{
    "error": {
        "404": "Dear fellow,\n\nWe regret to inform you that the page you have requested\nis unavailable at the moment. You may choose to proceed\nwith another request.\n\nCheerio,\nZamphyr",
        "disposable": "Hmm, this e-mail looks disposable. You can probably bypass this if you try hard, but don't, because we promise not to spam you.",
        "already_registered": "We have this e-mail linked to an existing account. If this is your e-mail, you can either login or reset your password.",
        "empty_email": "We need an e-mail address to start.",
        "wrong_details": "We couldn't match your entry to an ID. You can reset your password if you forgot it, or simply try again, maybe you mistyped.",
        "invalid_email": "Invalid email adress.",
        "server": "This method is server only.",
        "missing_name": "Name field is empty.",
        "too_young": "You're too young to use our services.",
        "oauth": "Failed to authenticate you via external service. Either the email is already in use, or there was a problem with the OAuth provider. Please try again.",
        "cookies": "Cookies seem to be disabled in your browser. Without them you can't use Zamphyr ID single sign-on. Please enable cookies in your browser.",
        "no_user": "User with given email address doesn't exist in our database."
    },  
    "inform": {
        "success": {
            "forgot": "Check your email, you should receive a password reset link in no time.",
            "change": "Password changed successfully."
        }
    },
    "login": {
        "header": "Start using Zamphyr",
        "email": "E-mail",
        "password": "Password",
        "toggle": "Toggle password visibility",
        "forgot": "I forgot my password",
        "login": "Login",
        "signup": {
            "1": "I don't have an ID.",
            "11": "Create an ID",
            "2": "Want an ID?",
            "22": "Sign up",
            "3": "Create a Zamphyr ID",
            "4": "Sign up for Zamphyr"
        }
    },
    "register": {
        "email": {
            "header": "Create a new account",
            "sub": "Let's start by checking your e-mail.",
            "email": "E-mail",
            "newsletter": "It's ok to send me e-mail regarding Zamphyr's service",
            "create": "Create my account",
            "alternative": {
                "1": "Alternatively, we can use an account you already have on a service like Facebook to create a Zamphyr ID.",
                "2": "Looking for Facebook or Gitlab login?"
            },
            "social": "Use my social account",
            "tos": "By proceeding to create your account and use Zamphyr, you are agreeing to our",
            "tos1": "Terms of Service",
            "tos2": "and",
            "tos3": "Privacy Policy.",
            "tos4": "If you do not agree, you cannot use Zamphyr."
        },
        "name": {
            "header": "Welcome,",
            "sub": "You're doing great. Tell us your name and select a password to finish account set up.",
            "name": "Full name",
            "password": "Password",
            "toggle": "Toggle password visibility",
            "complexity": "We don't impose requirements for passwords but here's some advice on",
            "complexity_href": "how to create a strong password",
            "start": "Let's start",
            "wrong": "If this is not the correct address, we can change it. Just click ",
            "wrong2": "is not my address",
            "dob": "Date of birth"
        },
        "external": {
            "header": "Use an existing account",
            "sub": "We can create a Zamphyr ID quickly from your existing account on services like Facebook, Gitlab and many more.",
            "facebook": "Connect with Facebook",
            "gitlab": "Connect with Gitlab",
            "permission": "We will not be able to publish anything in your name without your explicit permission.",
            "tos": "By proceeding to create your account and use Zamphyr, you are agreeing to our",
            "tos1": "Terms of Service",
            "tos2": "and",
            "tos3": "Privacy Policy.",
            "tos4": "If you do not agree, you cannot use Zamphyr."
        }
    },
    "forgot": {
        "header": "You forgot your password",
        "sub": "Don't worry, it happens. We can help you reset your password. Enter your e-mail and we will send you a reset link there.",
        "email": "E-mail",
        "reset": "Reset my password",
        "advice": "Just to be safe, here's some advice on",
        "advice_href": "how to never forget your passwords."
    },
    "change": {
        "header": "Choose a new password",
        "sub": "We can help you change your password in just a few clicks.",
        "current": "Current password",
        "new": "New password",
        "change": "Change my password",
        "advice": "We don't impose requirements for passwords but here's some advice on",
        "advice_href": "how to create a strong password."
    },
    "logged": {
        "header": "Hey,",
        "logout": "Logout"
    },
    "oauth": {
        "scope": {
            "users_info": {
                "title": "Account information",
                "desc": "access your name, age and learning status."
            },
            "topics_info": {
                "title": "Topic information",
                "desc": ""
            },
            "topics_list": {
                "title": "Topic list",
                "desc": ""
            },
            "paths_info": {
                "title": "Path info",
                "desc": ""
            },
            "paths_list": {
                "title": "Path list",
                "desc": ""
            },
            "notification_send": {
                "title": "Notifications",
                "desc": "send notifications to you."
            }
        }
    }
}