{
	"komentar": "Komentar",
	"markdown_podrska": "Markdown je **podržan**",
	"posalji": "Pošalji",
	"naziv": "Naziv",
	"izaberi": "Izaberi",
	"opis": "Opis",
	"licenca": "Licenca",
	"url": "URL",
	"regex": "(.+?)(?:[RegEx_je_po\\drzan]*?)",
	"novosti": "Novosti",
	"besplatno": "besplatno",
	"novosti_objavi": "Objavi učenicima",
	"naslov": "Naslov",
	"sadrzaj": "Sadržaj",
	"objavi": "Objavi",
	"obrisi": "Obriši",
	"dodaj": "Dodaj",
	"sacuvaj": "Sačuvaj",
	"posetite": "Posetite",

	"home_head": "Šta želite da učite?",
	"home_opis1": "Oblikujemo Zamphyr zajedno. Pretražite predlog ili pogledajte",
	"home_opis2": "sve postojeće predloge",
	"home_placeholder": "Upišite šta želite da učite...",

	"not_allowed": "Besposlenima i zlonamernima zabranjen pristup",

	"predlog_novi": "Predloži novi predmet",
	"predlog_novi_opis": "Reci nam nešto novo što želiš da učiš i neka tvoj predlog pobedi.",
	"predlog_novi_ime": "Ime predmeta, modula ili smera",
	"predlog_novi_vise": "Recite nam više o vašem predlogu",
	"predlog_novi_opis2": "Svaki vaš predlog dostupan je za glasanje i diskusiju. Ako vaš predlog dobije dovoljnu podršku zajednice, moći ćete da ga učite na našoj platformi.",
	"predlog_novi_pomaze": "Kako predlozi pomažu?",
	"predlog_novi_pomaze_opis": "Svaki put kada predložite nešto što bi želeli da učite, vi nama dajete smernice za našu platformu. Tako sami birate šta želite da učite i učestvujete u procesu odabira. Jedan od naših principa je da stvorimo otvorenu platformu na kojoj će studenti moći da brzo i lako komuniciraju sa nama i drugim studentima na platformi.",
	"predlozi": "Predloži",

	"razvija": "Razvija se",
	"pratis": "Pratiš",
	"prati": "Prati",
	"izbrisi_glas": "Izbriši glas",
	"daj_glas": "Daj glas",
	"podeli": "Podeli",
	"glasova": "Glasova",
	"pratilaca": "Pratilaca",
	"glasali_predlog": "Glasali za ovaj predlog",
	"cena": "Cena",

	"nema_rezultata": "Nema rezultata, dodajte vaš predlog.",
	"nema_rezultata_prijava": "Nema rezultata, prijavite se i predložite.",
	"svi_rezultati": "Svi rezultati za",
	"najnovije": "Najnovije",
	"najpopularnije": "Najpopularnije",

	"svi_predlozi": "Svi predlozi",

	"komentari_prijava": "Morate se prijaviti da bi učestvovali u diskusiji.",
	"komentari_prijava_za": "Morate se prijaviti za",
	"ucitaj_ostale": "Učitajte ostale komentare",
	"komentari_placeholder": "Priključite se diskusiji ili odgovorite na prethodni komentar.\n> **Markdown** _je_ `podržan`.",
	"komentari": "Komentari",

	"greska": "Greška!",
	"greska_predlog_postoji": "Predlog sa identičnim nazivom već postoji.",
	"greska_sva_polja": "Morate popuniti sva potrebna polja!",
	"greska_login": "Morate biti ulogovani!",
	"greska_server": "Metod može biti pozvan samo sa servera!",
	"poruka_izmene": "Izmene su uspešno sačuvane!",
	"greska_predlog_spoji": "Ne možete spojiti iste predloge.",
	"greska_predlog_spoji2": "Ne možete spojiti nešto sa praznim predlogom."
}